^D:\OOP1_FALL_2021\20_21_FALL_OOP1_14\20_21_FALL_OOP1_14_TAKEHOME4\20_21_FALL_OOP1_14_TAKEHOME4\VALVE.CPP
/c /ZI /JMC /nologo /W3 /WX- /diagnostics:column /sdl /Od /Oy- /D WIN32 /D _DEBUG /D _CONSOLE /D _UNICODE /D UNICODE /Gm- /EHsc /RTC1 /MDd /GS /fp:precise /permissive- /Zc:wchar_t /Zc:forScope /Zc:inline /Fo"DEBUG\\" /Fd"DEBUG\VC142.PDB" /Gd /TP /analyze- /FC D:\OOP1_FALL_2021\20_21_FALL_OOP1_14\20_21_FALL_OOP1_14_TAKEHOME4\20_21_FALL_OOP1_14_TAKEHOME4\VALVE.CPP
^D:\OOP1_FALL_2021\20_21_FALL_OOP1_14\20_21_FALL_OOP1_14_TAKEHOME4\20_21_FALL_OOP1_14_TAKEHOME4\ENGINE.CPP
/c /ZI /JMC /nologo /W3 /WX- /diagnostics:column /sdl /Od /Oy- /D WIN32 /D _DEBUG /D _CONSOLE /D _UNICODE /D UNICODE /Gm- /EHsc /RTC1 /MDd /GS /fp:precise /permissive- /Zc:wchar_t /Zc:forScope /Zc:inline /Fo"DEBUG\\" /Fd"DEBUG\VC142.PDB" /Gd /TP /analyze- /FC D:\OOP1_FALL_2021\20_21_FALL_OOP1_14\20_21_FALL_OOP1_14_TAKEHOME4\20_21_FALL_OOP1_14_TAKEHOME4\ENGINE.CPP
^D:\OOP1_FALL_2021\20_21_FALL_OOP1_14\20_21_FALL_OOP1_14_TAKEHOME4\20_21_FALL_OOP1_14_TAKEHOME4\MAIN.CPP
/c /ZI /JMC /nologo /W3 /WX- /diagnostics:column /sdl /Od /Oy- /D WIN32 /D _DEBUG /D _CONSOLE /D _UNICODE /D UNICODE /Gm- /EHsc /RTC1 /MDd /GS /fp:precise /permissive- /Zc:wchar_t /Zc:forScope /Zc:inline /Fo"DEBUG\\" /Fd"DEBUG\VC142.PDB" /Gd /TP /analyze- /FC D:\OOP1_FALL_2021\20_21_FALL_OOP1_14\20_21_FALL_OOP1_14_TAKEHOME4\20_21_FALL_OOP1_14_TAKEHOME4\MAIN.CPP
^D:\OOP1_FALL_2021\20_21_FALL_OOP1_14\20_21_FALL_OOP1_14_TAKEHOME4\20_21_FALL_OOP1_14_TAKEHOME4\READ.CPP
/c /ZI /JMC /nologo /W3 /WX- /diagnostics:column /sdl /Od /Oy- /D WIN32 /D _DEBUG /D _CONSOLE /D _UNICODE /D UNICODE /Gm- /EHsc /RTC1 /MDd /GS /fp:precise /permissive- /Zc:wchar_t /Zc:forScope /Zc:inline /Fo"DEBUG\\" /Fd"DEBUG\VC142.PDB" /Gd /TP /analyze- /FC D:\OOP1_FALL_2021\20_21_FALL_OOP1_14\20_21_FALL_OOP1_14_TAKEHOME4\20_21_FALL_OOP1_14_TAKEHOME4\READ.CPP
^D:\OOP1_FALL_2021\20_21_FALL_OOP1_14\20_21_FALL_OOP1_14_TAKEHOME4\20_21_FALL_OOP1_14_TAKEHOME4\SERVICETANK.CPP
/c /ZI /JMC /nologo /W3 /WX- /diagnostics:column /sdl /Od /Oy- /D WIN32 /D _DEBUG /D _CONSOLE /D _UNICODE /D UNICODE /Gm- /EHsc /RTC1 /MDd /GS /fp:precise /permissive- /Zc:wchar_t /Zc:forScope /Zc:inline /Fo"DEBUG\\" /Fd"DEBUG\VC142.PDB" /Gd /TP /analyze- /FC D:\OOP1_FALL_2021\20_21_FALL_OOP1_14\20_21_FALL_OOP1_14_TAKEHOME4\20_21_FALL_OOP1_14_TAKEHOME4\SERVICETANK.CPP
^D:\OOP1_FALL_2021\20_21_FALL_OOP1_14\20_21_FALL_OOP1_14_TAKEHOME4\20_21_FALL_OOP1_14_TAKEHOME4\SIMULATION.CPP
/c /ZI /JMC /nologo /W3 /WX- /diagnostics:column /sdl /Od /Oy- /D WIN32 /D _DEBUG /D _CONSOLE /D _UNICODE /D UNICODE /Gm- /EHsc /RTC1 /MDd /GS /fp:precise /permissive- /Zc:wchar_t /Zc:forScope /Zc:inline /Fo"DEBUG\\" /Fd"DEBUG\VC142.PDB" /Gd /TP /analyze- /FC D:\OOP1_FALL_2021\20_21_FALL_OOP1_14\20_21_FALL_OOP1_14_TAKEHOME4\20_21_FALL_OOP1_14_TAKEHOME4\SIMULATION.CPP
